{
    "codeToName": {
        "0": "NULL",
        "13": "CR",
        "32": "space",
        "33": "exclam",
        "34": "quotedbl",
        "35": "numbersign",
        "36": "dollar",
        "37": "percent",
        "38": "ampersand",
        "39": "quotesingle",
        "40": "parenleft",
        "41": "parenright",
        "42": "asterisk",
        "43": "plus",
        "44": "comma",
        "45": "hyphen",
        "46": "period",
        "47": "slash",
        "48": "zero",
        "49": "one",
        "50": "two",
        "51": "three",
        "52": "four",
        "53": "five",
        "54": "six",
        "55": "seven",
        "56": "eight",
        "57": "nine",
        "58": "colon",
        "59": "semicolon",
        "60": "less",
        "61": "equal",
        "62": "greater",
        "63": "question",
        "64": "at",
        "65": "A",
        "66": "B",
        "67": "C",
        "68": "D",
        "69": "E",
        "70": "F",
        "71": "G",
        "72": "H",
        "73": "I",
        "74": "J",
        "75": "K",
        "76": "L",
        "77": "M",
        "78": "N",
        "79": "O",
        "80": "P",
        "81": "Q",
        "82": "R",
        "83": "S",
        "84": "T",
        "85": "U",
        "86": "V",
        "87": "W",
        "88": "X",
        "89": "Y",
        "90": "Z",
        "91": "bracketleft",
        "92": "backslash",
        "93": "bracketright",
        "94": "asciicircum",
        "95": "underscore",
        "96": "grave",
        "97": "a",
        "98": "b",
        "99": "c",
        "100": "d",
        "101": "e",
        "102": "f",
        "103": "g",
        "104": "h",
        "105": "i",
        "106": "j",
        "107": "k",
        "108": "l",
        "109": "m",
        "110": "n",
        "111": "o",
        "112": "p",
        "113": "q",
        "114": "r",
        "115": "s",
        "116": "t",
        "117": "u",
        "118": "v",
        "119": "w",
        "120": "x",
        "121": "y",
        "122": "z",
        "123": "braceleft",
        "124": "bar",
        "125": "braceright",
        "126": "asciitilde",
        "160": "nbspace",
        "161": "exclamdown",
        "162": "cent",
        "163": "sterling",
        "164": "currency",
        "165": "yen",
        "166": "brokenbar",
        "167": "section",
        "168": "dieresis",
        "169": "copyright",
        "170": "ordfeminine",
        "171": "guillemotleft",
        "172": "logicalnot",
        "173": "softhyphen",
        "174": "registered",
        "175": "macron",
        "176": "degree",
        "177": "plusminus",
        "178": "twosuperior",
        "179": "threesuperior",
        "180": "acute",
        "181": "micro",
        "182": "paragraph",
        "183": "periodcentered",
        "184": "cedilla",
        "185": "onesuperior",
        "186": "ordmasculine",
        "187": "guillemotright",
        "188": "onequarter",
        "189": "onehalf",
        "190": "threequarters",
        "191": "questiondown",
        "192": "Agrave",
        "193": "Aacute",
        "194": "Acircumflex",
        "195": "Atilde",
        "196": "Adieresis",
        "197": "Aring",
        "198": "AE",
        "199": "Ccedilla",
        "200": "Egrave",
        "201": "Eacute",
        "202": "Ecircumflex",
        "203": "Edieresis",
        "204": "Igrave",
        "205": "Iacute",
        "206": "Icircumflex",
        "207": "Idieresis",
        "208": "Eth",
        "209": "Ntilde",
        "210": "Ograve",
        "211": "Oacute",
        "212": "Ocircumflex",
        "213": "Otilde",
        "214": "Odieresis",
        "215": "multiply",
        "216": "Oslash",
        "217": "Ugrave",
        "218": "Uacute",
        "219": "Ucircumflex",
        "220": "Udieresis",
        "221": "Yacute",
        "222": "Thorn",
        "223": "germandbls",
        "224": "agrave",
        "225": "aacute",
        "226": "acircumflex",
        "227": "atilde",
        "228": "adieresis",
        "229": "aring",
        "230": "ae",
        "231": "ccedilla",
        "232": "egrave",
        "233": "eacute",
        "234": "ecircumflex",
        "235": "edieresis",
        "236": "igrave",
        "237": "iacute",
        "238": "icircumflex",
        "239": "idieresis",
        "240": "eth",
        "241": "ntilde",
        "242": "ograve",
        "243": "oacute",
        "244": "ocircumflex",
        "245": "otilde",
        "246": "odieresis",
        "247": "divide",
        "248": "oslash",
        "249": "ugrave",
        "250": "uacute",
        "251": "ucircumflex",
        "252": "udieresis",
        "253": "yacute",
        "254": "thorn",
        "255": "ydieresis",
        "256": "Amacron",
        "257": "amacron",
        "258": "Abreve",
        "259": "abreve",
        "264": "Ccircumflex",
        "265": "ccircumflex",
        "268": "Ccaron",
        "269": "ccaron",
        "274": "Emacron",
        "275": "emacron",
        "276": "Ebreve",
        "277": "ebreve",
        "288": "Gdotaccent",
        "289": "gdotaccent",
        "296": "Itilde",
        "297": "itilde",
        "298": "Imacron",
        "299": "imacron",
        "300": "Ibreve",
        "301": "ibreve",
        "305": "dotlessi",
        "313": "Lacute",
        "314": "lacute",
        "325": "Ncommaaccent",
        "326": "ncommaaccent",
        "332": "Omacron",
        "333": "omacron",
        "334": "Obreve",
        "335": "obreve",
        "338": "OE",
        "339": "oe",
        "340": "Racute",
        "341": "racute",
        "346": "Sacute",
        "347": "sacute",
        "352": "Scaron",
        "353": "scaron",
        "360": "Utilde",
        "361": "utilde",
        "362": "Umacron",
        "363": "umacron",
        "364": "Ubreve",
        "365": "ubreve",
        "376": "Ydieresis",
        "377": "Zacute",
        "378": "zacute",
        "381": "Zcaron",
        "382": "zcaron",
        "402": "florin",
        "482": "AEmacron",
        "483": "aemacron",
        "567": "dotlessj",
        "702": "halfringright",
        "703": "halfringleft",
        "710": "circumflex",
        "730": "ring",
        "732": "tilde",
        "768": "gravecomb",
        "769": "acutecomb",
        "770": "circumflexcomb",
        "771": "tildecomb",
        "772": "macroncomb",
        "774": "brevecomb",
        "775": "dotaccentcomb",
        "776": "dieresiscomb",
        "778": "ringcomb",
        "780": "caroncomb",
        "784": "candrabinducomb",
        "803": "dotbelowcomb",
        "804": "dieresisbelowcomb",
        "805": "ringbelowcomb",
        "806": "commaaccentcomb",
        "807": "cedillacomb",
        "814": "brevebelowcomb",
        "817": "macronbelowcomb",
        "863": "macrondblbelowcomb",
        "2304": "dCandrabinduInverted",
        "2305": "dCandrabindu",
        "2306": "dAnusvara",
        "2307": "dVisarga",
        "2308": "dShortA",
        "2309": "dA",
        "2310": "dAa",
        "2311": "dI",
        "2312": "dIi",
        "2313": "dU",
        "2314": "dUu",
        "2315": "dVocalicR",
        "2316": "dVocalicL",
        "2317": "dCandraE",
        "2318": "dShortE",
        "2319": "dE",
        "2320": "dAi",
        "2321": "dCandraO",
        "2322": "dShortO",
        "2323": "dO",
        "2324": "dAu",
        "2325": "dKa",
        "2326": "dKha",
        "2327": "dGa",
        "2328": "dGha",
        "2329": "dNga",
        "2330": "dCa",
        "2331": "dCha",
        "2332": "dJa",
        "2333": "dJha",
        "2334": "dNya",
        "2335": "dTta",
        "2336": "dTtha",
        "2337": "dDda",
        "2338": "dDdha",
        "2339": "dNna",
        "2340": "dTa",
        "2341": "dTha",
        "2342": "dDa",
        "2343": "dDha",
        "2344": "dNa",
        "2345": "dNnna",
        "2346": "dPa",
        "2347": "dPha",
        "2348": "dBa",
        "2349": "dBha",
        "2350": "dMa",
        "2351": "dYa",
        "2352": "dRa",
        "2353": "dRra",
        "2354": "dLa",
        "2355": "dLla",
        "2356": "dLlla",
        "2357": "dVa",
        "2358": "dSha",
        "2359": "dSsa",
        "2360": "dSa",
        "2361": "dHa",
        "2362": "dSignOe",
        "2363": "dSignOoe",
        "2364": "dNukta",
        "2365": "dAvagraha",
        "2366": "dSignAa",
        "2367": "dSignI",
        "2368": "dSignIi",
        "2369": "dSignU",
        "2370": "dSignUu",
        "2371": "dSignVocalicR",
        "2372": "dSignVocalicRr",
        "2373": "dSignCandraE",
        "2374": "dSignShortE",
        "2375": "dSignE",
        "2376": "dSignAi",
        "2377": "dSignCandraO",
        "2378": "dSignShortO",
        "2379": "dSignO",
        "2380": "dSignAu",
        "2381": "dHalant",
        "2382": "dSignEPrish",
        "2383": "dSignAw",
        "2384": "dOm",
        "2385": "dUdatta",
        "2386": "dAnudatta",
        "2387": "dGrave",
        "2388": "dAcute",
        "2389": "dSignCandraELong",
        "2390": "dSignUe",
        "2391": "dSignUue",
        "2392": "dQa",
        "2393": "dKhha",
        "2394": "dGhha",
        "2395": "dZa",
        "2396": "dDddha",
        "2397": "dRha",
        "2398": "dFa",
        "2399": "dYya",
        "2400": "dVocalicRr",
        "2401": "dVocalicLl",
        "2402": "dSignVocalicL",
        "2403": "dSignVocalicLl",
        "2404": "Danda",
        "2405": "DoubleDanda",
        "2406": "dZero",
        "2407": "dOne",
        "2408": "dTwo",
        "2409": "dThree",
        "2410": "dFour",
        "2411": "dFive",
        "2412": "dSix",
        "2413": "dSeven",
        "2414": "dEight",
        "2415": "dNine",
        "2416": "dAbbreviation",
        "2417": "dDot",
        "2418": "dCandraA",
        "2419": "dOe",
        "2420": "dOoe",
        "2421": "dAw",
        "2422": "dUe",
        "2423": "dUue",
        "2424": "dDdaMarwari",
        "2425": "dZha",
        "2426": "dJjya",
        "2427": "dGga",
        "2428": "dJja",
        "2429": "dGlottalStop",
        "2430": "dDdda",
        "2431": "dBba",
        "7692": "Ddotbelow",
        "7693": "ddotbelow",
        "7694": "Dlinebelow",
        "7695": "dlinebelow",
        "7702": "Emacronacute",
        "7703": "emacronacute",
        "7716": "Hdotbelow",
        "7717": "hdotbelow",
        "7730": "Kdotbelow",
        "7731": "kdotbelow",
        "7732": "Klinebelow",
        "7733": "klinebelow",
        "7734": "Ldotbelow",
        "7735": "ldotbelow",
        "7738": "Lmacronbelow",
        "7739": "lmacronbelow",
        "7744": "Mdotaccent",
        "7745": "mdotaccent",
        "7746": "Mdotbelow",
        "7747": "mdotbelow",
        "7748": "Ndotaccent",
        "7749": "ndotaccent",
        "7750": "Ndotbelow",
        "7751": "ndotbelow",
        "7752": "Nmacronbelow",
        "7753": "nmacronbelow",
        "7756": "Otildeacute",
        "7757": "otildeacute",
        "7768": "Rdotaccent",
        "7769": "rdotaccent",
        "7770": "Rdotbelow",
        "7771": "rdotbelow",
        "7772": "Rdotbelowmacron",
        "7773": "rdotbelowmacron",
        "7774": "Rmacronbelow",
        "7775": "rmacronbelow",
        "7778": "Sdotbelow",
        "7779": "sdotbelow",
        "7788": "Tdotbelow",
        "7789": "tdotbelow",
        "7790": "Tlinebelow",
        "7791": "tlinebelow",
        "7800": "Utildeacute",
        "7801": "utildeacute",
        "7822": "Ydotaccent",
        "7823": "ydotaccent",
        "7826": "Zdotbelow",
        "7827": "zdotbelow",
        "7828": "Zlinebelow",
        "7829": "zlinebelow",
        "7830": "hlinebelow",
        "7838": "Germandbls",
        "7868": "Etilde",
        "7869": "etilde",
        "8192": "enquad",
        "8193": "emquad",
        "8194": "enspace",
        "8195": "emspace",
        "8196": "thirdemspace",
        "8197": "quarteremspace",
        "8198": "sixthemspace",
        "8199": "figurespace",
        "8200": "punctuationspace",
        "8201": "thinspace",
        "8202": "hairspace",
        "8203": "ZWS",
        "8204": "ZWNJ",
        "8205": "ZWJ",
        "8211": "endash",
        "8212": "emdash",
        "8216": "quoteleft",
        "8217": "quoteright",
        "8218": "quotesinglbase",
        "8219": "quotereversed",
        "8220": "quotedblleft",
        "8221": "quotedblright",
        "8222": "quotedblbase",
        "8223": "quotedblleftreversed",
        "8224": "dagger",
        "8225": "daggerdbl",
        "8226": "bullet",
        "8230": "ellipsis",
        "8239": "NBSPnarrow",
        "8240": "perthousand",
        "8242": "minute",
        "8243": "second",
        "8249": "guilsinglleft",
        "8250": "guilsinglright",
        "8260": "fraction",
        "8277": "flowerpunc",
        "8287": "mathspacemedium",
        "8304": "zerosuperior",
        "8308": "foursuperior",
        "8309": "fivesuperior",
        "8310": "sixsuperior",
        "8311": "sevensuperior",
        "8312": "eightsuperior",
        "8313": "ninesuperior",
        "8360": "rupees",
        "8364": "Euro",
        "8377": "rupee",
        "8482": "trademark",
        "8722": "minus",
        "8725": "divisionslash",
        "9676": "BASE",
        "43056": "niFractionOneQuarter",
        "43057": "niFractionOneHalf",
        "43058": "niFractionThreeQuarters",
        "43059": "niFractionOneSixteenth",
        "43060": "niFractionOneEighth",
        "43061": "niFractionThreeSixteenths",
        "43062": "niQuarterMark",
        "43063": "niPlaceholderMark",
        "43064": "niRupeeMark",
        "43065": "niQuantityMark",
        "43260": "dSiddhirastu",
        "43261": "dOmJain",
        "43262": "dAy",
        "43263": "dSignAy"
    },
    "isUnicode": true,
    "EncodingScheme": "FontSpecific",
    "FontName": "Tiro Devanagari Hindi",
    "FullName": "Tiro Devanagari Hindi Regular",
    "Version": "Version 1.52",
    "PostScriptName": "TiroDevaHindi-Regular",
    "Weight": "Medium",
    "ItalicAngle": "0",
    "IsFixedPitch": "false",
    "UnderlineThickness": "45",
    "UnderlinePosition": "-88",
    "FontHeightOffset": "330",
    "Ascender": "755",
    "Descender": "-245",
    "FontBBox": [
        "-623",
        "-501",
        "1626",
        "1091"
    ],
    "StartCharMetrics": "1171",
    "C": {
        "0": 0,
        "13": 260,
        "32": 260,
        "33": 319,
        "34": 412,
        "35": 605,
        "36": 531,
        "37": 814,
        "38": 751,
        "39": 239,
        "40": 397,
        "41": 397,
        "42": 458,
        "43": 581,
        "44": 297,
        "45": 353,
        "46": 297,
        "47": 377,
        "48": 563,
        "49": 372,
        "50": 530,
        "51": 523,
        "52": 581,
        "53": 547,
        "54": 571,
        "55": 503,
        "56": 539,
        "57": 570,
        "58": 297,
        "59": 297,
        "60": 581,
        "61": 581,
        "62": 581,
        "63": 412,
        "64": 916,
        "65": 679,
        "66": 637,
        "67": 721,
        "68": 774,
        "69": 640,
        "70": 607,
        "71": 788,
        "72": 840,
        "73": 370,
        "74": 329,
        "75": 715,
        "76": 614,
        "77": 969,
        "78": 793,
        "79": 802,
        "80": 592,
        "81": 802,
        "82": 693,
        "83": 547,
        "84": 680,
        "85": 767,
        "86": 678,
        "87": 1012,
        "88": 696,
        "89": 620,
        "90": 656,
        "91": 409,
        "92": 377,
        "93": 409,
        "94": 584,
        "95": 400,
        "96": 360,
        "97": 493,
        "98": 580,
        "99": 471,
        "100": 589,
        "101": 497,
        "102": 330,
        "103": 548,
        "104": 596,
        "105": 298,
        "106": 282,
        "107": 550,
        "108": 292,
        "109": 896,
        "110": 603,
        "111": 571,
        "112": 588,
        "113": 578,
        "114": 410,
        "115": 424,
        "116": 362,
        "117": 583,
        "118": 502,
        "119": 764,
        "120": 520,
        "121": 499,
        "122": 496,
        "123": 395,
        "124": 304,
        "125": 395,
        "126": 581,
        "160": 260,
        "161": 319,
        "162": 511,
        "163": 555,
        "164": 598,
        "165": 553,
        "166": 307,
        "167": 550,
        "168": 360,
        "169": 1063,
        "170": 390,
        "171": 477,
        "172": 581,
        "173": 0,
        "174": 575,
        "175": 360,
        "176": 463,
        "177": 581,
        "178": 386,
        "179": 373,
        "180": 360,
        "181": 587,
        "182": 576,
        "183": 297,
        "184": 360,
        "185": 316,
        "186": 426,
        "187": 477,
        "188": 707,
        "189": 718,
        "190": 722,
        "191": 412,
        "192": 679,
        "193": 679,
        "194": 679,
        "195": 679,
        "196": 679,
        "197": 679,
        "198": 951,
        "199": 721,
        "200": 640,
        "201": 640,
        "202": 640,
        "203": 640,
        "204": 370,
        "205": 370,
        "206": 370,
        "207": 370,
        "208": 774,
        "209": 793,
        "210": 802,
        "211": 802,
        "212": 802,
        "213": 802,
        "214": 802,
        "215": 581,
        "216": 802,
        "217": 767,
        "218": 767,
        "219": 767,
        "220": 767,
        "221": 620,
        "222": 602,
        "223": 601,
        "224": 493,
        "225": 493,
        "226": 493,
        "227": 493,
        "228": 493,
        "229": 493,
        "230": 743,
        "231": 471,
        "232": 497,
        "233": 497,
        "234": 497,
        "235": 497,
        "236": 298,
        "237": 298,
        "238": 298,
        "239": 298,
        "240": 567,
        "241": 603,
        "242": 571,
        "243": 571,
        "244": 571,
        "245": 571,
        "246": 571,
        "247": 581,
        "248": 571,
        "249": 583,
        "250": 583,
        "251": 583,
        "252": 583,
        "253": 499,
        "254": 580,
        "255": 499,
        "256": 679,
        "257": 493,
        "258": 679,
        "259": 493,
        "264": 721,
        "265": 471,
        "268": 721,
        "269": 471,
        "274": 640,
        "275": 497,
        "276": 640,
        "277": 497,
        "288": 788,
        "289": 548,
        "296": 370,
        "297": 298,
        "298": 370,
        "299": 298,
        "300": 370,
        "301": 298,
        "305": 298,
        "313": 614,
        "314": 292,
        "325": 793,
        "326": 603,
        "332": 802,
        "333": 571,
        "334": 802,
        "335": 571,
        "338": 1049,
        "339": 849,
        "340": 693,
        "341": 410,
        "346": 547,
        "347": 424,
        "352": 547,
        "353": 424,
        "360": 767,
        "361": 583,
        "362": 767,
        "363": 583,
        "364": 767,
        "365": 583,
        "376": 620,
        "377": 656,
        "378": 496,
        "381": 656,
        "382": 496,
        "402": 473,
        "482": 956,
        "483": 743,
        "567": 282,
        "702": 241,
        "703": 241,
        "710": 360,
        "730": 360,
        "732": 360,
        "768": 0,
        "769": 0,
        "770": 0,
        "771": 0,
        "772": 0,
        "774": 0,
        "775": 0,
        "776": 0,
        "778": 0,
        "780": 0,
        "784": 0,
        "803": 0,
        "804": 0,
        "805": 0,
        "806": 0,
        "807": 0,
        "814": 0,
        "817": 0,
        "863": 0,
        "2304": 0,
        "2305": 0,
        "2306": 0,
        "2307": 0,
        "2308": 787,
        "2309": 787,
        "2310": 1047,
        "2311": 528,
        "2312": 528,
        "2313": 565,
        "2314": 760,
        "2315": 811,
        "2316": 682,
        "2317": 560,
        "2318": 560,
        "2319": 560,
        "2320": 560,
        "2321": 1047,
        "2322": 1045,
        "2323": 1045,
        "2324": 1045,
        "2325": 763,
        "2326": 815,
        "2327": 583,
        "2328": 624,
        "2329": 653,
        "2330": 676,
        "2331": 751,
        "2332": 735,
        "2333": 758,
        "2334": 775,
        "2335": 539,
        "2336": 577,
        "2337": 577,
        "2338": 558,
        "2339": 713,
        "2340": 573,
        "2341": 652,
        "2342": 527,
        "2343": 654,
        "2344": 570,
        "2345": 570,
        "2346": 557,
        "2347": 772,
        "2348": 602,
        "2349": 716,
        "2350": 612,
        "2351": 582,
        "2352": 394,
        "2353": 394,
        "2354": 686,
        "2355": 728,
        "2356": 728,
        "2357": 597,
        "2358": 708,
        "2359": 572,
        "2360": 679,
        "2361": 532,
        "2362": 0,
        "2363": 267,
        "2364": 0,
        "2365": 496,
        "2366": 267,
        "2367": 267,
        "2368": 267,
        "2369": 0,
        "2370": 0,
        "2371": 0,
        "2372": 0,
        "2373": 0,
        "2374": 0,
        "2375": 0,
        "2376": 0,
        "2377": 267,
        "2378": 267,
        "2379": 267,
        "2380": 267,
        "2381": 0,
        "2382": 280,
        "2383": 267,
        "2384": 986,
        "2385": 0,
        "2386": 0,
        "2387": 0,
        "2388": 0,
        "2389": 0,
        "2390": 0,
        "2391": 0,
        "2392": 763,
        "2393": 815,
        "2394": 583,
        "2395": 735,
        "2396": 577,
        "2397": 558,
        "2398": 772,
        "2399": 582,
        "2400": 851,
        "2401": 682,
        "2402": 0,
        "2403": 0,
        "2404": 256,
        "2405": 442,
        "2406": 534,
        "2407": 500,
        "2408": 538,
        "2409": 527,
        "2410": 552,
        "2411": 545,
        "2412": 543,
        "2413": 633,
        "2414": 570,
        "2415": 551,
        "2416": 411,
        "2417": 259,
        "2418": 787,
        "2419": 787,
        "2420": 1047,
        "2421": 1047,
        "2422": 787,
        "2423": 787,
        "2424": 509,
        "2425": 735,
        "2426": 582,
        "2427": 583,
        "2428": 730,
        "2429": 423,
        "2430": 577,
        "2431": 602,
        "7692": 774,
        "7693": 589,
        "7694": 774,
        "7695": 589,
        "7702": 640,
        "7703": 497,
        "7716": 840,
        "7717": 596,
        "7730": 715,
        "7731": 550,
        "7732": 715,
        "7733": 550,
        "7734": 617,
        "7735": 292,
        "7738": 617,
        "7739": 292,
        "7744": 967,
        "7745": 896,
        "7746": 967,
        "7747": 896,
        "7748": 793,
        "7749": 603,
        "7750": 793,
        "7751": 603,
        "7752": 793,
        "7753": 603,
        "7756": 802,
        "7757": 571,
        "7768": 693,
        "7769": 410,
        "7770": 693,
        "7771": 410,
        "7772": 693,
        "7773": 410,
        "7774": 693,
        "7775": 410,
        "7778": 547,
        "7779": 424,
        "7788": 680,
        "7789": 362,
        "7790": 680,
        "7791": 362,
        "7800": 767,
        "7801": 583,
        "7822": 620,
        "7823": 499,
        "7826": 656,
        "7827": 496,
        "7828": 656,
        "7829": 496,
        "7830": 596,
        "7838": 743,
        "7868": 640,
        "7869": 497,
        "8192": 500,
        "8193": 1000,
        "8194": 500,
        "8195": 1000,
        "8196": 334,
        "8197": 250,
        "8198": 167,
        "8199": 560,
        "8200": 297,
        "8201": 125,
        "8202": 63,
        "8203": 0,
        "8204": 0,
        "8205": 0,
        "8211": 500,
        "8212": 1000,
        "8216": 222,
        "8217": 222,
        "8218": 227,
        "8219": 222,
        "8220": 417,
        "8221": 417,
        "8222": 422,
        "8223": 417,
        "8224": 547,
        "8225": 557,
        "8226": 523,
        "8230": 831,
        "8239": 125,
        "8240": 1191,
        "8242": 225,
        "8243": 388,
        "8249": 322,
        "8250": 322,
        "8260": 110,
        "8277": 590,
        "8287": 222,
        "8304": 443,
        "8308": 433,
        "8309": 391,
        "8310": 433,
        "8311": 350,
        "8312": 417,
        "8313": 432,
        "8360": 1017,
        "8364": 562,
        "8377": 500,
        "8482": 861,
        "8722": 581,
        "8725": 110,
        "9676": 724,
        "43056": 256,
        "43057": 462,
        "43058": 668,
        "43059": 628,
        "43060": 628,
        "43061": 628,
        "43062": 459,
        "43063": 487,
        "43064": 195,
        "43065": 326,
        "43260": 716,
        "43261": 597,
        "43262": 560,
        "43263": 0
    },
    "CIDtoGID_Compressed": true,
    "CIDtoGID": "eJzt3GewVtUVxvHneTyKBUGkFykKiV1AQQQEYwPEhrFhV0RRg4KK9N57sSXR2GIvib337ugHK9Yko45+cEzsiRW8c72DXO69cmeAeZ3M\/zdzzt5n7bXXWec9n88rqyapcWVl63mal\/gB3+0vfIgXe67n+Xx\/5Ym+wFM8yw\/6IT\/sR\/yoH\/PjfsJP+ilP9iR\/52\/9vWf4b1pfG6iONtRG2libqK42VT3V12ZqoM3VUI3UWE3UVM3UXC3UUq20hVp7vmd7gW\/0LR6o63S9btCNukk361bdptt1p+7WPbpX9+l+PaAH9ZAe1iN6VI\/pcT2hJ\/WUF3qOF\/mmWj3hLys83ff4Xt\/u+3yzr\/Ox\/ruX+Sr\/4At9m4+L\/D+\/7Fd8VNbztb7eJ\/glL\/df\/ak\/8+eeqTZqq3baUu21nbZXJ3VRV+2q7tpXfdRX\/XWNTtFQnamzNExn+2udp0VarCW6UJfqWnfR03pGz+o5Pa+X9Yre0Dv6h\/6pd\/UffaJP9YUPdH03cVM3c3O39Ddu493c3T3cy\/v4IPdRB72gbfXSiufZSUvLx456fUWsh95TL31Q7fP31oeVrvvpM+2vLzVA31RE\/r3KjsO1vNpKf3Djla7OcSuNcOvy+Ui31Si3W7E20x1XzGe5U6Uq57unLnJvXeK9q73LZbrC\/cpnV3q\/ajOq8P21yyuZHfRqqVuopW9L3cCviQ\/2gErXR9dy3\/FlxzFrqYcTPciDfapPK5uf4aE+q2wcXnacU7E+olZVRnuMx3q8x1WKjio\/j1w7nVZ73wnrrjYAAADw\/ydzMyfzMj9N0ywt0jKt0jpt0jbtsmW2Svt0yG\/y22ydbdI5O2eXdEnX7Jpu2S3d0yM9s3t6pXf2yO+yZ\/bK3tkn+6ZP+qZf9kv\/7J8DcmAOysEZkEPy+xyaw3J4JmVyZufUDMlpGZphOTvnZkLOy8iMyuiMydiMy\/jMypRMLRZnQRZmURZnWqZnRo7IkRmYo3J0jsmxOS7bZruMyMQ0TpNiVDG6GFOMLcYV44sJxcRiUjG5mF8sSPNsnx2yY3ZKxxyfE3JiTsqgnJKTM7jUvz8AAAAAAAAAAAAAAAAAAMBa01lvahe9XSnWU+\/XmL+XPqpx7VD9oMO0TAP90zfFR\/rnr44Hua4Gu56GuIHOcCOd7obl8eFuUW2tMd5K49xBE721xrp9eWy2O1fJm++uWuhuVeIXePca+1zV5e5bPl7l\/rraB+jjVdbn1bpSVd30rzXYDawVKbJ+NkidbJiNsnE2yaapl\/ppkM3T8OcsX+SLK2Z\/9J98mf\/sS3ypL\/dffLWv8Q0Va1OrVN\/MX5adnZX+S8BX+Mqqffit1XVaLKmm+7qr2+UXK8ZX\/ZqX+nW\/4TdXt2dN+M6K8a4aM+5Yl\/cvBd9a6g6wLvm\/5ee3V5cHAADWTBqVugMAAAAAAAAAAAAAAAAAAAAAAAAAAAAAAAAAAAAAAAAAAAAAAAAAAAAAAAAAAAAAAAAAAAAAAAAAAAAAAAAAAAAAAAAAAAAAAAAAAAAAAAAAAAAAAAAAAAAAAAAAAAAAAABgzRVTi2nF9GJGMbOYVcwu5hRzi3ml7gll72VhsSidMrPUfQAAAAAAAAAAAAAAAAAAAAAAAAAAAAAAAAAAAAAAAAAAAAAAAAAAAAAAAAAAAAAAAAAAAAAAAAAAAAAAAAAAAABAbf0IE9zmFQ==",
    "_version_": 6
}