{
    "codeToName": {
        "32": "space",
        "33": "exclam",
        "34": "quotedbl",
        "35": "numbersign",
        "36": "dollar",
        "37": "percent",
        "38": "ampersand",
        "39": "quotesingle",
        "40": "parenleft",
        "41": "parenright",
        "42": "asterisk",
        "43": "plus",
        "44": "comma",
        "45": "hyphen",
        "46": "period",
        "47": "slash",
        "48": "zero",
        "49": "one",
        "50": "two",
        "51": "three",
        "52": "four",
        "53": "five",
        "54": "six",
        "55": "seven",
        "56": "eight",
        "57": "nine",
        "58": "colon",
        "59": "semicolon",
        "60": "less",
        "61": "equal",
        "62": "greater",
        "63": "question",
        "64": "at",
        "65": "A",
        "66": "B",
        "67": "C",
        "68": "D",
        "69": "E",
        "70": "F",
        "71": "G",
        "72": "H",
        "73": "I",
        "74": "J",
        "75": "K",
        "76": "L",
        "77": "M",
        "78": "N",
        "79": "O",
        "80": "P",
        "81": "Q",
        "82": "R",
        "83": "S",
        "84": "T",
        "85": "U",
        "86": "V",
        "87": "W",
        "88": "X",
        "89": "Y",
        "90": "Z",
        "91": "bracketleft",
        "92": "backslash",
        "93": "bracketright",
        "94": "asciicircum",
        "95": "underscore",
        "96": "grave",
        "97": "a",
        "98": "b",
        "99": "c",
        "100": "d",
        "101": "e",
        "102": "f",
        "103": "g",
        "104": "h",
        "105": "i",
        "106": "j",
        "107": "k",
        "108": "l",
        "109": "m",
        "110": "n",
        "111": "o",
        "112": "p",
        "113": "q",
        "114": "r",
        "115": "s",
        "116": "t",
        "117": "u",
        "118": "v",
        "119": "w",
        "120": "x",
        "121": "y",
        "122": "z",
        "123": "braceleft",
        "124": "bar",
        "125": "braceright",
        "126": "asciitilde",
        "141": "c141",
        "142": "c142",
        "143": "c143",
        "144": "c144",
        "161": "exclamdown",
        "163": "sterling",
        "165": "yen",
        "167": "section",
        "170": "ordfeminine",
        "171": "guillemotleft",
        "176": "degree",
        "180": "acute",
        "181": "mu",
        "182": "paragraph",
        "187": "guillemotright",
        "189": "onehalf",
        "190": "threequarters",
        "191": "questiondown",
        "198": "AE",
        "199": "Ccedilla",
        "200": "Egrave",
        "210": "Ograve",
        "216": "Oslash",
        "218": "Uacute",
        "223": "germandbls",
        "229": "aring",
        "230": "ae",
        "231": "ccedilla",
        "233": "eacute",
        "248": "oslash",
        "250": "uacute",
        "338": "OE",
        "353": "scaron",
        "732": "tilde",
        "8211": "endash",
        "8212": "emdash",
        "8216": "quoteleft",
        "8217": "quoteright",
        "8220": "quotedblleft",
        "8221": "quotedblright",
        "8226": "bullet",
        "8249": "guilsinglleft",
        "8250": "guilsinglright",
        "8482": "trademark",
        "61568": "c128",
        "61570": "quotesinglbase",
        "61576": "circumflex",
        "61577": "quoteright.0",
        "61578": "quoteleft.0"
    },
    "isUnicode": true,
    "EncodingScheme": "FontSpecific",
    "FontName": "Akshar",
    "FullName": "Akshar Normal",
    "Version": "1.0 Wed Nov 22 16:04:07 1995",
    "PostScriptName": "Akshar-Normal",
    "Weight": "Medium",
    "ItalicAngle": "0",
    "IsFixedPitch": "false",
    "UnderlineThickness": "24",
    "UnderlinePosition": "-49",
    "FontHeightOffset": "0",
    "Ascender": "710",
    "Descender": "-339",
    "FontBBox": [
        "-677",
        "-329",
        "997",
        "1081"
    ],
    "StartCharMetrics": "147",
    "C": {
        "32": 750,
        "33": 682,
        "34": 1,
        "35": 734,
        "36": 637,
        "37": 717,
        "38": 580,
        "39": 1,
        "40": 608,
        "41": 451,
        "42": 703,
        "43": 1,
        "44": 259,
        "45": 333,
        "46": 581,
        "47": 511,
        "48": 678,
        "49": 526,
        "50": 584,
        "51": 514,
        "52": 746,
        "53": 627,
        "54": 546,
        "55": 605,
        "56": 724,
        "57": 647,
        "58": 365,
        "59": 680,
        "60": 865,
        "61": 337,
        "62": 773,
        "63": 531,
        "64": 543,
        "65": 395,
        "66": 671,
        "67": 927,
        "68": 445,
        "69": 462,
        "70": 609,
        "71": 395,
        "72": 473,
        "73": 447,
        "74": 368,
        "75": 367,
        "76": 253,
        "77": 337,
        "78": 465,
        "79": 528,
        "80": 549,
        "81": 722,
        "82": 529,
        "83": 525,
        "84": 392,
        "85": 423,
        "86": 480,
        "87": 414,
        "88": 524,
        "89": 431,
        "90": 588,
        "91": 1,
        "92": 1,
        "93": 1,
        "94": 605,
        "95": 333,
        "96": 333,
        "97": 647,
        "98": 512,
        "99": 700,
        "100": 672,
        "101": 665,
        "102": 283,
        "103": 616,
        "104": 706,
        "105": 287,
        "106": 616,
        "107": 588,
        "108": 248,
        "109": 245,
        "110": 704,
        "111": 605,
        "112": 669,
        "113": 588,
        "114": 748,
        "115": 781,
        "116": 613,
        "117": 657,
        "118": 749,
        "119": 637,
        "120": 560,
        "121": 652,
        "122": 832,
        "123": 1,
        "124": 1,
        "125": 1,
        "126": 3,
        "141": 334,
        "142": 334,
        "143": 278,
        "144": 278,
        "161": 417,
        "163": 448,
        "165": 378,
        "167": 483,
        "170": 633,
        "171": 1,
        "176": 633,
        "180": 748,
        "181": 701,
        "182": 431,
        "187": 1056,
        "189": 665,
        "190": 570,
        "191": 834,
        "198": 448,
        "199": 333,
        "200": 332,
        "210": 0,
        "216": 763,
        "218": 1,
        "223": 729,
        "229": 512,
        "230": 444,
        "231": 1067,
        "233": 633,
        "248": 386,
        "250": 1,
        "338": 707,
        "353": 722,
        "732": 717,
        "8211": 815,
        "8212": 1000,
        "8216": 639,
        "8217": 815,
        "8220": 481,
        "8221": 481,
        "8226": 815,
        "8249": 259,
        "8250": 601,
        "8482": 815,
        "61568": 1056,
        "61570": 416,
        "61576": 406,
        "61577": 1000,
        "61578": 1000
    },
    "CIDtoGID_Compressed": true,
    "CIDtoGID": "eJzt0GWLHEEUBdALcXf3ZOPuLhvd3bi7u7u7u\/7iNMMyTCBMiJCZD+fA5VXVa6pfd\/KX2qRt2qV9OqRjOqVzuqRruqV7eqRneqV3+qRv+qV\/BmRgBmVwhmRohmV4RmRkRmV0xqQhYzMu4zMhEzMpkzMlUzMt0zMjMzMrszMnczMv87MgC7Moi7MkS7Msy7MijVmZVVmdNVmbdWlKc1qyPhuyMZuyOVuyNduyPTuyM7uyO3uyN\/uyPwdyMIdyOEdytOqXnc25nM+FX\/6BO0XuFrlX5H7p5EEelruPWuvjPMnT8umzIs\/zIi9\/uOlVXufNT97wtmL9rsj78u5DRedjPuVzUb9UnfZrkW9Vn6g\/Z6p2b\/2nKaB+3Kj1AAAAAAAAAAAAAAAAAAAA1NC1XG9dXcylUr2cK+Xu1d+663Ru\/6OpqA83az0AAAAAAAAAAAAAAAAAAAAAAAAAAAAAAAAAAAAAAAAAAAAAAAAAAAAAAAAAAAAAAAAAAAAAAAAAAAAAAAAAAAAAAAAAAAAAAAAAAAAAAAAAAAAAAAAAAAAAAAAAAAAAAAAAAAAAAAAAUHKsyPGK\/YmczKlaDQMAAAAAAAAAf+Y7y7Mp6Q==",
    "_version_": 6
}